{
  "name": "9mp",
  "do": "",
  "dont": "",
  "tags": [
    "9",
    "camera",
    "digit",
    "font",
    "letters",
    "megapixel",
    "megapixels",
    "mp",
    "number",
    "pixel",
    "pixels",
    "quality",
    "resolution",
    "symbol",
    "text",
    "type"
  ],
  "category": ["image"],
  "type": "static",
  "label": "None",
  "date": "03/03/2021",
  "hasOutlined": true
}
