{
  "name": "accessible",
  "do": "",
  "dont": "",
  "tags": [
    "accessible",
    "help",
    "accessibility",
    "handicap",
    "person",
    "body",
    "human"
  ],
  "category": ["action"],
  "type": "static",
  "hasOutlined": true,
  "date": "30/11/2020"
}
