{
  "name": "add_alarm",
  "do": "",
  "dont": "",
  "tags": [
    "add",
    "notification",
    "alert",
    "alarm",
    "countdown",
    "clock",
    "time",
    "bell",
    "plus"
  ],
  "category": ["device"],
  "type": "static",
  "hasOutlined": true,
  "date": "30/11/2020"
}
