{
  "name": "admin_panel_settings",
  "do": "",
  "dont": "",
  "tags": [
    "account",
    "admin",
    "certified",
    "face",
    "human",
    "panel",
    "people",
    "person",
    "profile",
    "security",
    "settings",
    "shield",
    "user"
  ],
  "category": ["action"],
  "type": "static",
  "hasOutlined": true,
  "date": "30/11/2020"
}
