{
  "name": "airline_seat_legroom_extra",
  "do": "",
  "dont": "",
  "tags": ["plane", "airplane", "chair", "big", "large"],
  "category": ["notification"],
  "type": "static",
  "hasOutlined": true,
  "date": "30/11/2020"
}
