{
  "name": "airline_seat_individual_suite",
  "do": "",
  "dont": "",
  "tags": ["room", "bed", "sleep", "plane", "airplane"],
  "category": ["notification"],
  "type": "static",
  "hasOutlined": true,
  "date": "30/11/2020"
}
