{
  "name": "backup",
  "do": "",
  "dont": "",
  "tags": ["cloud", "backup", "arrow", "upload", "up", "point"],
  "category": ["action"],
  "type": "static",
  "hasOutlined": true,
  "date": "30/11/2020"
}
