{
  "name": "backspace",
  "do": "",
  "dont": "",
  "tags": [
    "cancel",
    "erase",
    "backspace",
    "correct",
    "arrow",
    "clear",
    "back",
    "delete"
  ],
  "category": ["content"],
  "type": "static",
  "hasOutlined": true,
  "date": "30/11/2020"
}
