{
  "name": "beenhere",
  "do": "",
  "dont": "",
  "tags": [
    "here",
    "verified",
    "certified",
    "location",
    "check",
    "guide",
    "local",
    "mark",
    "direction"
  ],
  "category": ["maps"],
  "type": "static",
  "hasOutlined": true,
  "date": "30/11/2020"
}
