{
  "name": "bus_alert",
  "do": "",
  "dont": "",
  "tags": [
    "!",
    "alert",
    "attention",
    "automobile",
    "bus",
    "car",
    "cars",
    "caution",
    "danger",
    "error",
    "exclamation",
    "important",
    "maps",
    "mark",
    "notification",
    "symbol",
    "transportation",
    "vehicle",
    "warning"
  ],
  "category": ["maps"],
  "type": "static",
  "label": "None",
  "date": "03/03/2021",
  "hasOutlined": true
}
