{
  "name": "calculate",
  "do": "",
  "dont": "",
  "tags": ["+", "-", "=", "account", "calculate", "count", "fiance", "math"],
  "category": ["content"],
  "type": "static",
  "hasOutlined": true,
  "date": "30/11/2020"
}
