{
  "name": "connected_tv",
  "do": "",
  "dont": "",
  "tags": [
    "Android",
    "OS",
    "airplay",
    "cast",
    "chrome",
    "connect",
    "connected",
    "desktop",
    "device",
    "hardware",
    "iOS",
    "mac",
    "monitor",
    "screencast",
    "stream",
    "television",
    "tv",
    "web",
    "window",
    "wireless"
  ],
  "category": ["hardware"],
  "type": "static",
  "label": "None",
  "date": "03/03/2021",
  "hasOutlined": true
}
