{
  "name": "control_camera",
  "do": "",
  "dont": "",
  "tags": [
    "Control",
    "adjust",
    "arrow",
    "arrows",
    "camera",
    "direction",
    "left",
    "move",
    "right"
  ],
  "category": ["av"],
  "type": "static",
  "hasOutlined": true,
  "date": "30/11/2020"
}
