{
  "name": "dialer_sip",
  "do": "",
  "dont": "",
  "tags": [
    "over",
    "voice",
    "symbol",
    "Dialer",
    "session",
    "alphabet",
    "type",
    "call",
    "routing",
    "character",
    "protocol",
    "initiation",
    "phone",
    "letter",
    "sip",
    "text",
    "internet",
    "font"
  ],
  "category": ["communication"],
  "type": "static",
  "hasOutlined": true,
  "date": "30/11/2020"
}
