{
  "name": "directions_run",
  "do": "",
  "dont": "",
  "tags": [
    "route",
    "person",
    "jogging",
    "run",
    "body",
    "human",
    "people",
    "walk",
    "direction"
  ],
  "category": ["maps"],
  "type": "static",
  "hasOutlined": true,
  "date": "30/11/2020"
}
