{
  "name": "dock",
  "do": "",
  "dont": "",
  "tags": ["connection", "rack", "communication", "plug", "charge", "charging"],
  "category": ["hardware"],
  "type": "static",
  "hasOutlined": true,
  "date": "30/11/2020"
}
