{
  "name": "document_scanner",
  "do": "",
  "dont": "",
  "tags": [
    "capture",
    "file",
    "software",
    "device",
    "computer",
    "printing",
    "paper",
    "photocopier",
    "hardware"
  ],
  "category": ["communication"],
  "type": "static",
  "label": "None",
  "date": "03/03/2021",
  "hasOutlined": true
}
