{
  "name": "done_outline",
  "do": "",
  "dont": "",
  "tags": ["check", "complete", "done", "finished", "mark", "outline"],
  "category": ["action"],
  "type": "static",
  "hasOutlined": true,
  "date": "30/11/2020"
}
