{
  "name": "donut_large",
  "do": "",
  "dont": "",
  "tags": ["donut", "inprogress", "complete", "graph"],
  "category": ["action"],
  "type": "static",
  "hasOutlined": true,
  "date": "30/11/2020"
}
