{
  "name": "doorbell",
  "do": "",
  "dont": "",
  "tags": ["alarm", "bell", "door", "doorbell", "home", "house", "ringing"],
  "category": ["search"],
  "type": "static",
  "label": "None",
  "date": "03/03/2021",
  "hasOutlined": true
}
