{
  "name": "drive_file_move",
  "do": "",
  "dont": "",
  "tags": [
    "arrow",
    "arrows",
    "data",
    "direction",
    "doc",
    "document",
    "drive",
    "file",
    "folder",
    "folders",
    "move",
    "right",
    "sheet",
    "side",
    "slide",
    "storage"
  ],
  "category": ["file"],
  "type": "static",
  "label": "None",
  "date": "03/03/2021",
  "hasOutlined": true
}
