{
  "name": "e_mobiledata",
  "do": "",
  "dont": "",
  "tags": ["Alphabet", "Text", "data", "e", "font", "letter", "mobile", "type"],
  "category": ["device"],
  "type": "static",
  "label": "None",
  "date": "03/03/2021",
  "hasOutlined": true
}
