{
  "name": "featured_video",
  "do": "",
  "dont": "",
  "tags": [
    "watch",
    "advertised",
    "highlighted",
    "Featured",
    "video",
    "recommended"
  ],
  "category": ["av"],
  "type": "static",
  "hasOutlined": true,
  "date": "30/11/2020"
}
