{
  "name": "fingerprint",
  "do": "",
  "dont": "",
  "tags": [
    "finger",
    "print",
    "identification",
    "identity",
    "reader",
    "fingerprint",
    "thumbprint",
    "id"
  ],
  "category": ["action"],
  "type": "static",
  "hasOutlined": true,
  "date": "30/11/2020"
}
