{
  "name": "flatware",
  "do": "",
  "dont": "",
  "tags": [
    "cafe",
    "cafeteria",
    "cutlery",
    "diner",
    "dining",
    "eat",
    "eating",
    "fork",
    "room",
    "spoon"
  ],
  "category": ["search"],
  "type": "static",
  "label": "None",
  "date": "03/03/2021",
  "hasOutlined": true
}
