{
  "name": "flight_land",
  "do": "",
  "dont": "",
  "tags": [
    "plane",
    "flight",
    "fly",
    "landing",
    "arrival",
    "land",
    "arriving",
    "travel",
    "transportation"
  ],
  "category": ["action"],
  "type": "static",
  "hasOutlined": true,
  "date": "30/11/2020"
}
