{
  "name": "healing",
  "do": "<ul><li>Use it for fixes or patches.</li></ul>",
  "dont": "<ul><li>Don't use it for help.</li></ul>",
  "tags": ["edit", "repair", "patch", "fix", "bugfix"],
  "category": ["development"],
  "type": "static",
  "hasOutlined": true,
  "date": "30/11/2020"
}
