{
  "name": "insert_emoticon",
  "do": "",
  "dont": "",
  "tags": [
    "sentiment",
    "face",
    "emoji",
    "person",
    "happy",
    "profile",
    "emoticon",
    "human",
    "people",
    "user",
    "account",
    "smile"
  ],
  "category": ["editor"],
  "type": "static",
  "hasOutlined": true,
  "date": "30/11/2020"
}
