{
  "name": "lunch_dining",
  "do": "",
  "dont": "",
  "tags": [
    "breakfast",
    "dinner",
    "drink",
    "fastfood",
    "food",
    "hamburger",
    "lunch",
    "meal"
  ],
  "category": ["maps"],
  "type": "static",
  "label": "None",
  "date": "03/03/2021",
  "hasOutlined": true
}
