{
  "name": "missed_video_call",
  "do": "",
  "dont": "",
  "tags": ["Missed", "arrow", "call", "record", "video"],
  "category": ["av"],
  "type": "static",
  "hasOutlined": true,
  "date": "30/11/2020"
}
