{
  "name": "money",
  "do": "",
  "dont": "",
  "tags": [
    "bill",
    "card",
    "cart",
    "cash",
    "coin",
    "commerce",
    "credit",
    "currency",
    "digit",
    "dollars",
    "money",
    "number",
    "online",
    "pay",
    "payment",
    "shopping",
    "symbol"
  ],
  "category": ["maps"],
  "type": "static",
  "hasOutlined": true,
  "date": "30/11/2020"
}
