{
  "name": "mp",
  "do": "",
  "dont": "",
  "tags": [
    "alphabet",
    "character",
    "font",
    "image",
    "letter",
    "megapixel",
    "mp",
    "photo",
    "photography",
    "pixels",
    "quality",
    "resolution",
    "symbol",
    "text",
    "type"
  ],
  "category": ["image"],
  "type": "static",
  "label": "None",
  "date": "03/03/2021",
  "hasOutlined": true
}
