{
  "name": "museum",
  "do": "",
  "dont": "",
  "tags": [
    "attraction",
    "event",
    "exhibition",
    "explore",
    "local",
    "museum",
    "see",
    "shop",
    "store",
    "tour"
  ],
  "category": ["maps"],
  "type": "static",
  "hasOutlined": true,
  "date": "30/11/2020"
}
