{
  "name": "notifications_off",
  "do": "",
  "dont": "",
  "tags": ["bell", "alert", "notification", "alarm", "ring", "sleep mode"],
  "category": ["social"],
  "type": "static",
  "hasOutlined": true,
  "date": "30/11/2020"
}
