{
  "name": "offline_pin",
  "do": "",
  "dont": "",
  "tags": ["offline", "pin", "checkmark", "circle"],
  "category": ["action"],
  "type": "static",
  "hasOutlined": true,
  "date": "30/11/2020"
}
