{
  "name": "opacity",
  "do": "",
  "dont": "",
  "tags": [
    "drop",
    "color",
    "droplet",
    "invert",
    "tone",
    "hue",
    "palette",
    "inverted",
    "opacity",
    "water"
  ],
  "category": ["action"],
  "type": "static",
  "hasOutlined": true,
  "date": "30/11/2020"
}
