{
  "name": "pending",
  "do": "",
  "dont": "",
  "tags": ["waiting", "paused", "awaiting", "dots", "loading", "charging"],
  "category": ["action"],
  "type": "static",
  "hasOutlined": true,
  "date": "30/11/2020"
}
