{
  "name": "personal_video",
  "do": "",
  "dont": "",
  "tags": ["screen", "display", "monitor"],
  "category": ["notification"],
  "type": "static",
  "hasOutlined": true,
  "date": "30/11/2020"
}
