{
  "name": "phone_paused",
  "do": "",
  "dont": "",
  "tags": ["mobile", "smartphone", "call", "communication"],
  "category": ["notification"],
  "type": "static",
  "hasOutlined": true,
  "date": "30/11/2020"
}
