{
  "name": "play_lesson",
  "do": "",
  "dont": "",
  "tags": ["audio", "book", "digital", "ebook", "lesson", "multimedia", "play"],
  "category": ["device"],
  "type": "static",
  "label": "None",
  "date": "03/03/2021",
  "hasOutlined": true
}
