{
  "name": "priority_high",
  "do": "",
  "dont": "",
  "tags": ["alert", "warning", "attention", "important"],
  "category": ["notification"],
  "type": "static",
  "hasOutlined": true,
  "date": "30/11/2020"
}
