{
  "name": "quickreply",
  "do": "",
  "dont": "",
  "tags": [
    "comment",
    "ray",
    "lightning",
    "bubble",
    "conversation",
    "communication",
    "response",
    "fast",
    "flash",
    "speed"
  ],
  "category": ["action"],
  "type": "static",
  "hasOutlined": true,
  "date": "30/11/2020"
}
