{
  "name": "r_mobiledata",
  "do": "",
  "dont": "",
  "tags": [
    "alphabet",
    "character",
    "data",
    "font",
    "letter",
    "mobile",
    "r",
    "symbol",
    "text",
    "type"
  ],
  "category": ["device"],
  "type": "static",
  "label": "None",
  "date": "03/03/2021",
  "hasOutlined": true
}
