{
  "name": "sanitizer",
  "do": "",
  "dont": "",
  "tags": ["disinfect", "disinfection", "antiseptic", "sanitize", "virus"],
  "category": ["social"],
  "type": "static",
  "hasOutlined": true,
  "date": "30/11/2020"
}
