{
  "name": "security_update_warning",
  "do": "",
  "dont": "",
  "tags": [
    "!",
    "Android",
    "OS",
    "alert",
    "attention",
    "caution",
    "danger",
    "device",
    "download",
    "error",
    "exclamation",
    "hardware",
    "iOS",
    "important",
    "mark",
    "mobile",
    "notification",
    "phone",
    "security",
    "symbol",
    "tablet",
    "update",
    "warning"
  ],
  "category": ["device"],
  "type": "static",
  "label": "None",
  "date": "03/03/2021",
  "hasOutlined": true
}
