{
  "name": "settings_suggest",
  "do": "",
  "dont": "",
  "tags": ["gear", "recommendation", "setting", "suggestion", "system"],
  "category": ["device"],
  "type": "static",
  "label": "None",
  "date": "03/03/2021",
  "hasOutlined": true
}
