{
  "name": "snowmobile",
  "do": "",
  "dont": "",
  "tags": [
    "activity",
    "sport",
    "game",
    "extreme",
    "action",
    "winter",
    "Adventure",
    "transport",
    "travel",
    "vehicle",
    "holiday",
    "ice"
  ],
  "category": ["maps"],
  "type": "static",
  "label": "None",
  "date": "03/03/2021",
  "hasOutlined": true
}
