{
  "name": "snowshoeing",
  "do": "",
  "dont": "",
  "tags": [
    "activity",
    "sport",
    "game",
    "action",
    "winter",
    "Adventure",
    "travel",
    "holiday",
    "ice",
    "mountain"
  ],
  "category": ["social"],
  "type": "static",
  "label": "None",
  "date": "03/03/2021",
  "hasOutlined": true
}
