{
  "name": "south_east",
  "do": "",
  "dont": "",
  "tags": ["direction", "arrow", "compass", "sign", "travel"],
  "category": ["navigation"],
  "type": "static",
  "hasOutlined": true,
  "date": "30/11/2020"
}
