{
  "name": "star_outline",
  "do": "",
  "dont": "",
  "tags": [
    "bookmark",
    "favorite",
    "half",
    "highlight",
    "ranking",
    "rate",
    "rating",
    "save",
    "star",
    "toggle"
  ],
  "category": ["toggle"],
  "type": "static",
  "hasOutlined": true,
  "date": "30/11/2020"
}
