{
  "name": "subtitles_off",
  "do": "",
  "dont": "",
  "tags": [
    "accessibility",
    "accessible",
    "caption",
    "cc",
    "disabled",
    "enabled",
    "language",
    "off",
    "on",
    "slash",
    "subtitle",
    "subtitles",
    "translate"
  ],
  "category": ["action"],
  "type": "static",
  "hasOutlined": true,
  "date": "30/11/2020"
}
