{
  "name": "support_agent",
  "do": "",
  "dont": "",
  "tags": ["headset", "technical", "consultant", "helpline", "online", "call"],
  "category": ["notification"],
  "type": "static",
  "hasOutlined": true,
  "date": "30/11/2020"
}
