{
  "name": "thumb_up_off_alt",
  "do": "",
  "dont": "",
  "tags": [
    "agreed",
    "approved",
    "confirm",
    "correct",
    "favorite",
    "feedback",
    "good",
    "happy",
    "like",
    "okay",
    "positive",
    "satisfaction",
    "social",
    "thumb",
    "up",
    "vote",
    "yes"
  ],
  "category": ["action"],
  "type": "static",
  "label": "None",
  "date": "03/03/2021",
  "hasOutlined": true
}
