{
  "name": "timelapse",
  "do": "",
  "dont": "",
  "tags": ["camera", "time", "video", "sport", "setting"],
  "category": ["image"],
  "type": "static",
  "hasOutlined": true,
  "date": "30/11/2020"
}
