{
  "name": "topic",
  "do": "",
  "dont": "",
  "tags": ["conversation", "matter", "discourse", "subject"],
  "category": ["file"],
  "type": "static",
  "hasOutlined": true,
  "date": "30/11/2020"
}
