{
  "name": "tv_off",
  "do": "",
  "dont": "",
  "tags": [
    "Android",
    "OS",
    "chrome",
    "desktop",
    "device",
    "disabled",
    "enabled",
    "hardware",
    "iOS",
    "mac",
    "monitor",
    "off",
    "on",
    "slash",
    "television",
    "tv",
    "web",
    "window"
  ],
  "category": ["notification"],
  "type": "static",
  "hasOutlined": true,
  "date": "30/11/2020"
}
