{
  "name": "upcoming",
  "do": "",
  "dont": "",
  "tags": [
    "alarm",
    "alert",
    "calendar",
    "mail",
    "message",
    "notification",
    "upcoming"
  ],
  "category": ["content"],
  "type": "static",
  "label": "None",
  "date": "03/03/2021",
  "hasOutlined": true
}
