{
  "name": "view_day",
  "do": "",
  "dont": "",
  "tags": ["calendar", "view", "cards", "week", "format", "carousel", "day"],
  "category": ["action"],
  "type": "static",
  "hasOutlined": true,
  "date": "30/11/2020"
}
