{
  "name": "voice_chat",
  "do": "",
  "dont": "",
  "tags": ["message", "communication", "talk", "conversation"],
  "category": ["notification"],
  "type": "static",
  "hasOutlined": true,
  "date": "30/11/2020"
}
