{
  "name": "wb_sunny",
  "do": "",
  "dont": "",
  "tags": ["sun", "weather", "summer", "filter", "camera", "setting", "photo"],
  "category": ["image"],
  "type": "static",
  "hasOutlined": true,
  "date": "30/11/2020"
}
