{
  "name": "where_to_vote",
  "do": "",
  "dont": "",
  "tags": [
    "ballot",
    "check",
    "checkmark",
    "election",
    "location",
    "pin",
    "poll",
    "vote"
  ],
  "category": ["content"],
  "type": "static",
  "hasOutlined": true,
  "date": "30/11/2020"
}
