{
  "name": "work",
  "do": "",
  "dont": "",
  "tags": ["suitcase", "briefcase", "work", "suit", "job"],
  "category": ["action"],
  "type": "static",
  "hasOutlined": true,
  "date": "30/11/2020"
}
