{
  "name": "application_instance",
  "do": "<ul><li>To represent an instance of an aplication.</li></ul>",
  "dont": "<ul><li>To represent an application or application status.</li></ul>",
  "tags": ["eos", "application", "application status"],
  "category": "development",
  "type": "static",
  "date": "30/11/2020"
}
