{
  "name": "application_incomplete",
  "do": "<ul><li>When the status of an applications is incomplete.</li><li>When an application is missing configuration to work properly.</li></ul>",
  "dont": "<ul><li>To represent an application or application instance.</li></ul>",
  "tags": ["eos", "application", "application status"],
  "category": "virtualization",
  "type": "static",
  "date": "30/11/2020",
  "hasOutlined": true,
  "dateOutlined": "2/26/2021"
}
