{
  "name": "daemon_set",
  "do": "<ul><li>Use this icon to represent a group of processes running in the background</li></ul>",
  "dont": "<ul><li>Don't use it to represent a library or comic</li></ul>",
  "tags": ["eos", "group", "processes", "kubernetes", "background", "demons"],
  "category": "virtualization",
  "type": "static",
  "date": "30/11/2020",
  "hasOutlined": true,
  "dateOutlined": "2/22/2021"
}
