{
  "name": "products",
  "do": "<ul><li>To show a collection of products.</li></ul>",
  "dont": "",
  "tags": ["eos", "product", "collection"],
  "category": "services",
  "type": "static",
  "date": "30/11/2020"
}
