{
  "name": "secure_data",
  "do": "<ul><li>Use to store config info in a secure manner.</li></ul>",
  "dont": "<ul><li>Don't use it for constraint</li></ul>",
  "tags": ["eos", "safe", "secret", "kubernetes"],
  "category": "development",
  "type": "static",
  "date": "30/11/2020"
}
